…
    ## Joining with `by = join_by(gene_id)`

``` r
write.csv(promoter_dbps, "analysis/02_peak_features/results/dbps_on_a_promoter.csv")

## I know that SUV39H1 is a methyltransferase and adds trimethyl marks to H3K9. This mark is thought to recruit both UHRF1, which deposits H3K18UbK23Ub marks, and DNMT1, a DNA methyltransferase. I want to see if there are common proteins that bind all 3 promoters that could imply a pathway mechanism.

### DBPs bound to DNMT1 promoter
dnmt1_promoter <- promoter_dbps %>%
  filter(gene_name == "DNMT1")
dnmt1_promoter
```

    ## # A tibble: 163 × 3
    ##    dbp    gene_id            gene_name
    ##    <chr>  <chr>              <chr>    
    ##  1 AKAP8  ENSG00000130816.16 DNMT1    
    ##  2 ARID4A ENSG00000130816.16 DNMT1    
    ##  3 ARID4B ENSG00000130816.16 DNMT1    
    ##  4 ARID5B ENSG00000130816.16 DNMT1    
    ##  5 ARNTL  ENSG00000130816.16 DNMT1    
    ##  6 ATAD3A ENSG00000130816.16 DNMT1    
    ##  7 ATF7   ENSG00000130816.16 DNMT1    
    ##  8 BCL3   ENSG00000130816.16 DNMT1    
    ##  9 BCL6   ENSG00000130816.16 DNMT1    
    ## 10 CBFB   ENSG00000130816.16 DNMT1    
    ## # ℹ 153 more rows

``` r
nrow(dnmt1_promoter)
```

    ## [1] 163

``` r
### DBPs bound to UHRF1 promoter
uhrf1_promoter <- promoter_dbps %>%
  filter(gene_name == "UHRF1")
uhrf1_promoter
```

    ## # A tibble: 29 × 3
    ##    dbp    gene_id           gene_name
    ##    <chr>  <chr>             <chr>    
    ##  1 ATF7   ENSG00000276043.5 UHRF1    
    ##  2 CBX5   ENSG00000276043.5 UHRF1    
    ##  3 EGR1   ENSG00000276043.5 UHRF1    
    ##  4 GABPB1 ENSG00000276043.5 UHRF1    
    ##  5 IRF2   ENSG00000276043.5 UHRF1    
    ##  6 KLF13  ENSG00000276043.5 UHRF1    
    ##  7 MIXL1  ENSG00000276043.5 UHRF1    
    ##  8 MTA1   ENSG00000276043.5 UHRF1    
    ##  9 MXD3   ENSG00000276043.5 UHRF1    
    ## 10 NRL    ENSG00000276043.5 UHRF1    
    ## # ℹ 19 more rows

``` r
nrow(uhrf1_promoter)
```

    ## [1] 29

``` r
### DBPs bound to SUV39H1 promoter
suv39h1_promoter <- promoter_dbps %>%
  filter(gene_name == "SUV39H1")
suv39h1_promoter
```

    ## # A tibble: 159 × 3
    ##    dbp    gene_id            gene_name
    ##    <chr>  <chr>              <chr>    
    ##  1 AKAP8  ENSG00000101945.16 SUV39H1  
    ##  2 ARID4A ENSG00000101945.16 SUV39H1  
    ##  3 ARID4B ENSG00000101945.16 SUV39H1  
    ##  4 ARID5B ENSG00000101945.16 SUV39H1  
    ##  5 ARNTL  ENSG00000101945.16 SUV39H1  
    ##  6 ATAD3A ENSG00000101945.16 SUV39H1  
    ##  7 ATF2   ENSG00000101945.16 SUV39H1  
    ##  8 BCL3   ENSG00000101945.16 SUV39H1  
    ##  9 BCL6   ENSG00000101945.16 SUV39H1  
    ## 10 CBFB   ENSG00000101945.16 SUV39H1  
    ## # ℹ 149 more rows

``` r
nrow(suv39h1_promoter)
```

    ## [1] 159

``` r
library(dplyr)
common_dbps_at_promoter <- inner_join(dnmt1_promoter, uhrf1_promoter, suv39h1_promoter, by = c("dbp"))
common_dbps_at_promoter
```

    ## # A tibble: 27 × 5
    ##    dbp    gene_id.x          gene_name.x gene_id.y         gene_name.y
    ##    <chr>  <chr>              <chr>       <chr>             <chr>      
    ##  1 ATF7   ENSG00000130816.16 DNMT1       ENSG00000276043.5 UHRF1      
    ##  2 CBX5   ENSG00000130816.16 DNMT1       ENSG00000276043.5 UHRF1      
    ##  3 EGR1   ENSG00000130816.16 DNMT1       ENSG00000276043.5 UHRF1      
    ##  4 GABPB1 ENSG00000130816.16 DNMT1       ENSG00000276043.5 UHRF1      
    ##  5 IRF2   ENSG00000130816.16 DNMT1       ENSG00000276043.5 UHRF1      
    ##  6 KLF13  ENSG00000130816.16 DNMT1       ENSG00000276043.5 UHRF1      
    ##  7 MTA1   ENSG00000130816.16 DNMT1       ENSG00000276043.5 UHRF1      
    ##  8 MXD3   ENSG00000130816.16 DNMT1       ENSG00000276043.5 UHRF1      
    ##  9 NRL    ENSG00000130816.16 DNMT1       ENSG00000276043.5 UHRF1      
    ## 10 TEAD3  ENSG00000130816.16 DNMT1       ENSG00000276043.5 UHRF1      
    ## # ℹ 17 more rows
…
